Division,WeightClassKg,Place,Name,Team,BodyweightKg,Best3SquatKg,Best3BenchKg,Best3DeadliftKg,TotalKg,Equipment,Event,Sex,BirthDate
Boys,55.79,1,Marc Perez,San Antonio Southwest Legacy,55.75,111.13,61.23,95.25,267.62,Single-ply,SBD,M,
Boys,59.87,1,Gavin Gutierrez,Runge,58.29,122.47,81.65,142.88,347,Single-ply,SBD,M,
Boys,67.13,1,Ramiro Torres,Runge,66.59,154.22,113.4,151.95,419.57,Single-ply,SBD,M,
Boys,67.13,2,Trent Jones,Runge,66.13,158.76,90.72,151.95,401.43,Single-ply,SBD,M,
Boys,67.13,3,Randy Contreras,San Antonio Kennedy,66.13,102.06,63.5,142.88,308.44,Single-ply,SBD,M,
Boys,67.13,DQ,Nacious Jacquez,San Antonio Kennedy,63.59,136.08,,,,Single-ply,SBD,M,
Boys,74.84,1,Guadalupe Cruz,San Antonio Southwest Legacy,72.48,142.88,102.06,161.03,405.97,Single-ply,SBD,M,
Boys,82.1,1,Brody Levine,Runge,75.52,142.88,99.79,142.88,385.55,Single-ply,SBD,M,
Boys,82.1,2,Jayden Correa,San Antonio Southwest Legacy,75.66,136.08,90.72,138.35,365.14,Single-ply,SBD,M,
Boys,82.1,3,Nathan Shearer,San Antonio Southwest Legacy,82.05,142.88,61.23,106.59,310.71,Single-ply,SBD,M,
Boys,82.1,4,Josh Lucio,San Antonio Southwest Legacy,81.74,102.06,61.23,129.27,292.57,Single-ply,SBD,M,
Boys,89.81,1,Nathan Mason,San Antonio Kennedy,83.46,83.91,61.23,142.88,288.03,Single-ply,SBD,M,
Boys,124.74,1,Nick Rodriguez,San Antonio Kennedy,121.47,195.04,120.2,183.7,498.95,Single-ply,SBD,M,
Boys,124.74,2,Nicolas Drake Velez,San Antonio Southwest Legacy,115.62,183.7,102.06,181.44,467.2,Single-ply,SBD,M,
Boys,124.74,DQ,Manuel Reyna,San Antonio Kennedy,111.4,156.49,,,,Single-ply,SBD,M,
