Sex,Name,CyrillicName,Event,Equipment,WeightClassKg,Division,BirthDate,Age,BodyweightKg,Squat1Kg,Squat2Kg,Squat3Kg,Best3SquatKg,Bench1Kg,Bench2Kg,Bench3Kg,Bench4Kg,Best3BenchKg,Deadlift1Kg,Deadlift2Kg,Deadlift3Kg,Best3DeadliftKg,TotalKg,Place
F,Evgeniya Chistik,Евгения Чистик,D,Raw,44,Open,1985-11-17,30,43.6,,,,,,,,,,125,,,125,125,1
F,Mariya Vorobeva,Мария Воробьева,D,Raw,52,Teen 13-15,2002-11-16,13,49.7,,,,,,,,,,70,75,-80,75,75,1
F,Darya Afanasenkova,Дарья Афанасенкова,D,Raw,67.5,Teen 18-19,1996-06-01,19,63.5,,,,,,,,,,95,105,-110,105,105,1
F,Yuliya Medvedeva #1,Юлия Медведева,D,Raw,75,Open,1979-07-08,36,74.9,,,,,,,,,,210,220,-230,220,220,1
M,Aleksey Khatskevich,Алексей Хацкевич,D,Raw,67.5,Teen 18-19,1997-01-24,18,67.5,,,,,,,,,,200,210,-220,210,210,1
M,Naim Khashalov,Наим Хашалов,D,Raw,67.5,Teen 16-17,1999-01-08,16,67.5,,,,,,,,,,120,135,-150,135,135,2
M,Aleksey Samotonin,Алексей Самотонин,D,Raw,67.5,Juniors 20-23,1995-02-26,20,66.3,,,,,,,,,,180,,,180,180,1
M,Maksim Kovalev,Максим Ковалев,D,Raw,67.5,Open,1987-01-28,28,63.7,,,,,,,,,,155,165,-175,165,165,1
M,Roman Glukhov,Роман Глухов,D,Raw,75,Open,1991-06-16,24,68.1,,,,,,,,,,-130,140,160,160,160,1
M,Vladislav Bliznyuk,Владислав Близнюк,D,Raw,82.5,Teen 16-17,1998-03-03,17,79.4,,,,,,,,,,200,,,200,200,1
M,Andrey Abramov,Андрей Абрамов,D,Raw,82.5,Masters 40-44,1974-10-01,41,79.6,,,,,,,,,,165,,,165,165,1
M,Denis Sergeev,Денис Сергеев,D,Raw,90,Open,1991-07-27,24,86,,,,,,,,,,215,230,245,245,245,1
M,Aleksandr Kyubbar,Александр Кюббар,D,Raw,90,Masters 55-59,1960-05-23,55,88.5,,,,,,,,,,190,,,190,190,1
M,Stanislav Budykin,Станислав Будыкин,D,Raw,100,Juniors 20-23,1995-05-11,20,93.9,,,,,,,,,,-150,180,195,195,195,1
M,Oleg Vlasov,Олег Власов,D,Raw,110,Open,1973-12-06,42,109.9,,,,,,,,,,260,,,260,260,1
F,Evgeniya Chistik,Евгения Чистик,SBD,Wraps,44,Open,1985-11-17,30,43.6,105,115,-120,115,52.5,-55,-55,,52.5,110,120,125,125,292.5,1
F,Olga Nasonova,Ольга Насонова,SBD,Wraps,67.5,Teen 18-19,1996-11-30,19,66.8,185,200,-207.5,200,85,90,95,,95,170,180,-190,180,475,1
M,Andrey Leontev,Андрей Леонтьев,SBD,Wraps,100,Open,1985-09-23,30,94.2,-160,170,180,180,115,-122.5,122.5,,122.5,170,185,200,200,502.5,1
M,Vladimir Ankudinov,Владимир Анкудинов,SBD,Wraps,110,Masters 40-44,1974-10-02,41,107.6,175,190,200,200,125,130,135,,135,175,200,220,220,555,1
F,Mariya Vorobeva,Мария Воробьева,SBD,Raw,52,Teen 13-15,2002-11-16,13,49.7,40,50,55,55,-30,35,-40,,35,50,60,65,65,155,1
F,Anna Fedorova,Анна Федорова,SBD,Raw,56,Open,1991-06-22,24,55,80,-90,-90,80,52.5,55,-57.5,,55,82.5,90,95,95,230,1
F,Yuliya Kovalenkova,Юлия Коваленкова,SBD,Raw,56,Open,1989-11-23,26,54.7,60,65,67.5,67.5,35,-40,-40,,35,65,75,85,85,187.5,2
F,Darya Afanasenkova,Дарья Афанасенкова,SBD,Raw,67.5,Teen 18-19,1996-06-01,19,63.5,-75,-75,-75,,,,,,,,,,,,DQ
F,Alina Kuzmina,Алина Кузьмина,SBD,Raw,67.5,Open,1988-07-03,27,63.3,,80,85,85,55,57.5,-60,,57.5,75,85,90,90,232.5,1
M,Naim Khashalov,Наим Хашалов,SBD,Raw,67.5,Teen 16-17,1999-01-08,16,67.5,-120,-120,-120,,,,,,,,,,,,DQ
M,Aleksey Samotonin,Алексей Самотонин,SBD,Raw,67.5,Juniors 20-23,1995-02-26,20,66.3,130,140,145,145,100,110,112.5,,112.5,165,175,180,180,437.5,1
M,Mikhail Lazutkin,Михаил Лазуткин,SBD,Raw,67.5,Juniors 20-23,1995-05-02,20,63,-140,-140,-140,,,,,,,,,,,,DQ
M,Maksim Kutyavin,Максим Кутявин,SBD,Raw,67.5,Open,1988-12-19,27,60.6,135,142.5,145,145,97.5,102.5,107.5,,107.5,190,200,-207.5,200,452.5,1
M,Andrey Kolbin,Андрей Колбин,SBD,Raw,67.5,Open,1984-07-22,31,67.1,145,-155,-155,145,100,105,-107.5,,105,160,-175,177.5,177.5,427.5,2
M,Anton Voronin,Антон Воронин,SBD,Raw,75,Open,1984-08-28,31,72.1,110,120,130,130,100,-110,-110,,100,160,170,182.5,182.5,412.5,1
M,Vladislav Bliznyuk,Владислав Близнюк,SBD,Raw,82.5,Teen 16-17,1998-03-03,17,79.4,170,180,185,185,100,105,-110,,105,185,200,-210,200,490,1
M,Denis Chaykin,Денис Чайкин,SBD,Raw,82.5,Teen 13-15,2000-09-14,15,80.7,90,100,110,110,85,-90,90,,90,135,145,155,155,355,2
M,Aleksey Platoshin,Алексей Платошин,SBD,Raw,82.5,Open,1984-10-01,31,82,185,200,205,205,140,145,-147.5,,145,230,240,-250,240,590,1
M,Andrey Abramov,Андрей Абрамов,SBD,Raw,82.5,Masters 40-44,1974-10-01,41,79.6,120,130,140,140,110,115,-120,,115,145,155,165,165,420,1
M,Aleksandr Kyubbar,Александр Кюббар,SBD,Raw,90,Masters 55-59,1960-05-23,55,88.5,120,130,145,145,110,115,120,,120,170,180,-195,180,445,1
M,Denis Smirnov,Денис Смирнов,SBD,Raw,100,Juniors 20-23,1992-05-28,23,99.9,-170,180,200,200,130,-140,140,,140,170,190,210,210,550,1
M,Kirill Shchegolev,Кирилл Щеголев,SBD,Raw,100,Juniors 20-23,1992-04-03,23,96.1,100,130,140,140,100,115,130,,130,100,130,,130,400,2
M,Kirill Shchegolev,Кирилл Щеголев,SBD,Raw,100,Open,1992-04-03,23,96.1,100,130,140,140,100,115,130,,130,100,130,,130,400,1
M,Oleg Vlasov,Олег Власов,SBD,Raw,110,Open,1973-12-06,42,109.9,180,200,215,215,160,175,185,,185,220,240,260,260,660,1
M,Daniil Simonov,Даниил Симонов,B,Raw,52,Youth,2004-05-25,11,36.2,,,,,25,30,-32.5,,30,,,,,30,1
M,Aleksey Murzov,Алексей Мурзов,B,Raw,56,Teen 13-15,2000-11-30,15,55.3,,,,,75,-80,80,,80,,,,,80,1
M,Kirill Tuzikov,Кирилл Тузиков,B,Raw,56,Teen 16-17,1999-10-16,16,54.4,,,,,50,55,60,,60,,,,,60,2
M,Nikita Maleev,Никита Малеев,B,Raw,60,Teen 16-17,1999-04-16,16,59.1,,,,,60,65,-70,,65,,,,,65,1
M,Andrey Anikeev,Андрей Аникеев,B,Raw,67.5,Teen 16-17,1998-04-26,17,65.7,,,,,87.5,95,-97.5,,95,,,,,95,1
M,Sergey Budygin,Сергей Будыгин,B,Raw,67.5,Teen 13-15,2000-10-24,15,62.3,,,,,45,50,55,,55,,,,,55,2
M,Aleksey Samotonin,Алексей Самотонин,B,Raw,67.5,Juniors 20-23,1995-02-26,20,66.3,,,,,112.5,,,,112.5,,,,,112.5,1
M,Mikhail Lazutkin,Михаил Лазуткин,B,Raw,67.5,Juniors 20-23,1995-05-02,20,63,,,,,90,-97.5,-97.5,,90,,,,,90,2
M,Evgeniy Pasynkov,Евгений Пасынков,B,Raw,75,Teen 16-17,1998-03-02,17,73.9,,,,,110,120,125,,125,,,,,125,1
M,Dmitriy Peshev,Дмитрий Пешев,B,Raw,75,Teen 18-19,1997-09-02,18,71.4,,,,,105,110,115,,115,,,,,115,2
M,Ilya Borovitskiy,Илья Боровицкий,B,Raw,75,Teen 16-17,1998-06-03,17,68.8,,,,,82.5,87.5,-90,,87.5,,,,,87.5,3
M,Anton Rogulin,Антон Рогулин,B,Raw,75,Teen 13-15,2000-11-20,15,68.8,,,,,50,55,-65,,55,,,,,55,4
M,Karen Charchyan,Карен Чарчян,B,Raw,75,Open,1988-12-22,26,74.7,,,,,130,135,-137.5,,135,,,,,135,1
M,Andrey Klopovskiy,Андрей Клоповский,B,Raw,75,Open,1990-08-17,25,72.2,,,,,115,120,-125,,120,,,,,120,2
M,Roman Glukhov,Роман Глухов,B,Raw,75,Open,1991-06-16,24,68.1,,,,,90,100,110,,110,,,,,110,3
M,Dmitriy Matveev,Дмитрий Матвеев,B,Raw,75,Open,1989-10-10,26,74.6,,,,,95,107.5,-110,,107.5,,,,,107.5,4
M,Evgeniy Zhmakin,Евгений Жмакин,B,Raw,75,Open,1988-02-08,27,75,,,,,-95,-95,-95,,,,,,,,DQ
M,Nikita Smirnov,Никита Смирнов,B,Raw,82.5,Teen 18-19,1996-06-03,19,80.9,,,,,130,140,-145,,140,,,,,140,1
M,Kirill Golosov,Кирилл Голосов,B,Raw,82.5,Teen 13-15,2000-01-14,15,75.8,,,,,55,60,67.5,,67.5,,,,,67.5,2
M,Matvey Mishulin,Матвей Мишулин,B,Raw,82.5,Juniors 20-23,1995-08-24,20,82.3,,,,,125,130,-132.5,,130,,,,,130,1
M,Andrey Yavorskiy,Андрей Яворский,B,Raw,82.5,Juniors 20-23,1995-05-13,20,80.4,,,,,85,-90,90,,90,,,,,90,2
M,Artem Bykhovets,Артем Быховец,B,Raw,82.5,Open,1983-07-19,32,82.2,,,,,150,157.5,167.5,,167.5,,,,,167.5,1
M,Viktor Sevastyanov,Виктор Севастянов,B,Raw,82.5,Open,1983-11-06,32,82.2,,,,,150,160,165,,165,,,,,165,2
M,Ilya Shokhtin,Илья Шохтин,B,Raw,82.5,Open,1986-12-08,29,82.2,,,,,135,140,-145,,140,,,,,140,3
M,Egor Zaytsev,Егор Зайцев,B,Raw,82.5,Open,1991-08-14,24,81.9,,,,,120,125,-127.5,,125,,,,,125,4
M,Oleg Kontsevoy,Олег Концевой,B,Raw,82.5,Masters 45-49,1967-08-19,48,82.5,,,,,110,115,120,,120,,,,,120,1
M,Aleksey Sergienko,Алексей Сергиенко,B,Raw,90,Juniors 20-23,1993-05-25,22,87.4,,,,,125,130,137.5,,137.5,,,,,137.5,1
M,Maksim Sagaydak,Максим Сагайдак,B,Raw,90,Open,1988-07-29,27,89,,,,,167.5,-177.5,177.5,,177.5,,,,,177.5,1
M,Yaroslav Terentev,Ярослав Терентьев,B,Raw,90,Open,1986-11-27,29,88.2,,,,,160,167.5,170,,170,,,,,170,2
M,Dmitriy Sherin,Дмитрий Шерин,B,Raw,90,Open,1991-02-17,24,84.3,,,,,140,150,155,,155,,,,,155,3
M,Andrey Babets,Андрей Бабец,B,Raw,90,Open,1987-01-02,28,87.7,,,,,-130,135,-140,,135,,,,,135,4
M,Aleksey Kovalenkov,Алексей Коваленков,B,Raw,90,Open,1991-03-29,24,84.3,,,,,125,-135,-135,,125,,,,,125,5
M,Artem Zacharov,Артем Зачаров,B,Raw,90,Open,1985-10-06,30,87,,,,,-125,-125,-130,,,,,,,,DQ
M,Aleksandr Kyubbar,Александр Кюббар,B,Raw,90,Masters 55-59,1960-05-23,55,88.5,,,,,,,,,,,,,,,DQ
M,Mikhail Vasilev,Михаил Васильев,B,Raw,100,Teen 18-19,1996-04-10,19,99,,,,,150,160,170,-172.5,170,,,,,170,1
M,Artem Kuznetsov,Артем Кузнецов,B,Raw,100,Juniors 20-23,1994-10-21,21,98.9,,,,,155,162.5,170,,170,,,,,170,1
M,Vitaliy Kovalchuk,Віталій Ковальчук,B,Raw,100,Juniors 20-23,1994-11-15,21,99.3,,,,,155,162.5,167.5,-170,167.5,,,,,167.5,2
M,Sergey Kharchenko,Сергей Харченко,B,Raw,100,Juniors 20-23,1992-03-15,23,95.4,,,,,125,135,145,,145,,,,,145,3
M,Mikhail Vasilev,Михаил Васильев,B,Raw,110,Teen 18-19,1996-04-10,19,100.5,,,,,,,,,,,,,,,DQ
M,Kirill Kirienko,Кирилл Кириенко,B,Raw,110,Juniors 20-23,1993-07-17,22,104,,,,,140,155,-167.5,,155,,,,,155,1
M,Oleg Vlasov,Олег Власов,B,Raw,110,Open,1973-12-06,42,109.9,,,,,185,,,,185,,,,,185,1
M,Aleksandr Gryaznov,Александр Грязнов,B,Raw,110,Masters 40-44,1974-06-08,41,105,,,,,-160,165,170,,170,,,,,170,1
