Division,WeightClassKg,Place,Name,Team,BodyweightKg,Best3SquatKg,Best3BenchKg,Best3DeadliftKg,TotalKg,Equipment,Event,Sex
Boys,51.71,1,Nathan Mendiaz,Monahans,49.9,138.35,77.11,127.01,342.46,Single-ply,SBD,M
Boys,51.71,2,Ryan Folds,San Angelo Grape Creek,51.71,140.61,74.84,127.01,342.46,Single-ply,SBD,M
Boys,51.71,3,David Carrasco,Big Lake Reagan County,47.17,115.67,61.23,138.35,315.25,Single-ply,SBD,M
Boys,51.71,4,Trey Wachsman,Miles,46.72,92.99,45.36,97.52,235.87,Single-ply,SBD,M
Boys,51.71,5,Noel Sanchez,Miles,51.71,90.72,45.36,88.45,224.53,Single-ply,SBD,M
Boys,55.79,1,Cody Coombs,San Angelo Lake View,55.79,136.08,86.18,140.61,362.87,Single-ply,SBD,M
Boys,55.79,2,Cade Cramer,Mertzon Irion County,55.61,108.86,74.84,120.2,303.91,Single-ply,SBD,M
Boys,55.79,3,Damien Vaught,Kermit,54.88,81.65,38.56,77.11,197.31,Single-ply,SBD,M
Boys,55.79,DQ,Alejandro Castro,Eldorado,54.43,102.06,,,,Single-ply,SBD,M
Boys,59.87,1,Keegan Gonzales,Mertzon Irion County,57.61,149.69,97.52,151.95,399.16,Single-ply,SBD,M
Boys,59.87,2,Zavian Florez,Kermit,58.97,149.69,72.57,158.76,381.02,Single-ply,SBD,M
Boys,59.87,3,Bryan Fuentes,Kermit,59.42,136.08,86.18,145.15,367.41,Single-ply,SBD,M
Boys,59.87,4,Anthony Olivares,Eldorado,57.15,138.35,65.77,142.88,347,Single-ply,SBD,M
Boys,59.87,5,Kody Collins,Monahans,59.87,129.27,70.31,136.08,335.66,Single-ply,SBD,M
Boys,59.87,6,Victor Lopez,Iraan,58.97,124.74,63.5,136.08,324.32,Single-ply,SBD,M
Boys,59.87,7,Vinny Rodriguez,Crane,59.87,115.67,68.04,131.54,315.25,Single-ply,SBD,M
Boys,59.87,8,Brodey Meyers,Iraan,58.06,97.52,52.16,124.74,274.42,Single-ply,SBD,M
Boys,59.87,9,Christian Yuregas,Ozona,58.97,97.52,52.16,108.86,258.55,Single-ply,SBD,M
Boys,67.13,1,Oscar Narvaez,Mertzon Irion County,67.13,199.58,108.86,192.78,501.22,Single-ply,SBD,M
Boys,67.13,2,Anthony Perez,Ozona,65.32,149.69,92.99,181.44,424.11,Single-ply,SBD,M
Boys,67.13,3,Kevin Yates,Christoval,67.13,176.9,90.72,149.69,417.3,Single-ply,SBD,M
Boys,67.13,4,Saul Morin,Big Lake Reagan County,66.68,161.03,83.91,165.56,410.5,Single-ply,SBD,M
Boys,67.13,5,Glenn Crowder,Iraan,60.78,138.35,83.91,172.37,394.63,Single-ply,SBD,M
Boys,67.13,6,Henry Ramos,Sonora,63.05,154.22,79.38,149.69,383.29,Single-ply,SBD,M
Boys,67.13,7,Joshua Trevino,Kermit,63.96,156.49,74.84,145.15,376.48,Single-ply,SBD,M
Boys,67.13,8,Shay Smith #2,McCamey,63.05,136.08,72.57,165.56,374.21,Single-ply,SBD,M
Boys,67.13,9,Emmanuel Sarabia,Ozona,64.86,147.42,74.84,151.95,374.21,Single-ply,SBD,M
Boys,67.13,10,Jeffrey Harlin,Mertzon Irion County,66.95,151.95,65.77,140.61,358.34,Single-ply,SBD,M
Boys,67.13,11,Mario De Luna,Iraan,62.14,124.74,74.84,142.88,342.46,Single-ply,SBD,M
Boys,67.13,12,Jeremy Mireles,San Angelo Lake View,63.96,108.86,72.57,142.88,324.32,Single-ply,SBD,M
Boys,67.13,13,Bryan Salinas,Ozona,66.22,127.01,58.97,117.93,303.91,Single-ply,SBD,M
Boys,67.13,14,Marc Garcia,Miles,62.6,113.4,61.23,124.74,299.37,Single-ply,SBD,M
Boys,67.13,15,Gavin DeLeon,San Angelo Grape Creek,63.96,111.13,58.97,113.4,283.5,Single-ply,SBD,M
Boys,67.13,16,Jonathan Flores,Miles,62.14,95.25,70.31,115.67,281.23,Single-ply,SBD,M
Boys,67.13,DQ,Jesus DeLuna,Eldorado,67.13,163.29,77.11,,,Single-ply,SBD,M
Boys,67.13,DQ,Kraig Cadena,Eldorado,66.22,,,,,Single-ply,SBD,M
Boys,67.13,DQ,Jalen Ybarra,Crane,64.86,86.18,,,,Single-ply,SBD,M
Boys,67.13,DQ,Ivan Tirado,Miles,64.86,,,,,Single-ply,SBD,M
Boys,74.84,1,Caleb Wilson,Mertzon Irion County,74.84,265.35,122.47,238.14,625.96,Single-ply,SBD,M
Boys,74.84,2,John Jurado,Ozona,74.39,251.74,131.54,226.8,610.08,Single-ply,SBD,M
Boys,74.84,3,Raymond Parsons,San Angelo Grape Creek,74.39,179.17,108.86,199.58,487.61,Single-ply,SBD,M
Boys,74.84,4,Zack White,San Angelo Lake View,74.84,147.42,102.06,158.76,408.23,Single-ply,SBD,M
Boys,74.84,5,Matteo Nunez,Monahans,74.84,154.22,102.06,140.61,396.89,Single-ply,SBD,M
Boys,74.84,6,Les Wood,Mertzon Irion County,73.66,154.22,97.52,140.61,392.36,Single-ply,SBD,M
Boys,74.84,7,Gunner Adams,McCamey,70.76,142.88,81.65,163.29,387.82,Single-ply,SBD,M
Boys,74.84,8,Felipe Rodriguez,Kermit,73.03,149.69,79.38,149.69,378.75,Single-ply,SBD,M
Boys,74.84,DQ,Jonas Garcia,Miles,74.84,,,,,Single-ply,SBD,M
Boys,74.84,DQ,Cass Benson,Mertzon Irion County,73.48,,79.38,158.76,,Single-ply,SBD,M
Boys,74.84,DQ,Jared Flores,Miles,69.85,151.95,,,,Single-ply,SBD,M
Boys,74.84,DQ,Mark Johnson,Miles,72.57,,,,,Single-ply,SBD,M
Boys,74.84,DQ,Joe Romero,Big Lake Reagan County,69.85,95.25,,,,Single-ply,SBD,M
Boys,74.84,DQ,Keanu Hernandez,Eldorado,72.12,151.95,,,,Single-ply,SBD,M
Boys,74.84,DQ,Coty Beard,Monahans,74.84,156.49,,,,Single-ply,SBD,M
Boys,74.84,DQ,Leroy Garcia,Miles,72.12,,,,,Single-ply,SBD,M
Boys,74.84,DQ,James Vordick,San Angelo Grape Creek,74.84,131.54,,,,Single-ply,SBD,M
Boys,74.84,DQ,Kevin Martinez,Sonora,68.49,204.12,,,,Single-ply,SBD,M
Boys,82.1,1,Noah Nandin,San Angelo Lake View,82.1,161.03,111.13,208.65,480.81,Single-ply,SBD,M
Boys,82.1,2,Ralphy Salas,Big Lake Reagan County,80.29,172.37,104.33,172.37,449.06,Single-ply,SBD,M
Boys,82.1,3,Trystan Banks,Miles,81.19,165.56,113.4,156.49,435.45,Single-ply,SBD,M
Boys,82.1,4,Will Cantu,Miles,76.2,142.88,83.91,149.69,376.48,Single-ply,SBD,M
Boys,82.1,5,Kodee Warriner,Big Lake Reagan County,77.56,129.27,74.84,165.56,369.68,Single-ply,SBD,M
Boys,82.1,6,Julio Narvaez,Eldorado,80.74,136.08,79.38,136.08,351.53,Single-ply,SBD,M
Boys,82.1,7,Blaine Aker,Eldorado,75.3,120.2,56.7,124.74,301.64,Single-ply,SBD,M
Boys,82.1,DQ,Irwin Gomez,Miles,76.66,158.76,,,,Single-ply,SBD,M
Boys,82.1,DQ,Preston Lewis,Mertzon Irion County,79.38,,,,,Single-ply,SBD,M
Boys,82.1,DQ,Francisco Muniz,San Angelo Lake View,78.47,149.69,,,,Single-ply,SBD,M
Boys,89.81,1,Cris Stallings,Kermit,88.45,231.33,161.03,231.33,623.69,Single-ply,SBD,M
Boys,89.81,2,Aliq DeLeon,McCamey,89.81,226.8,149.69,213.19,589.67,Single-ply,SBD,M
Boys,89.81,3,Chris Amador,Mertzon Irion County,87.63,233.6,117.93,192.78,544.31,Single-ply,SBD,M
Boys,89.81,4,Anthony Gloria,San Angelo Lake View,89.81,195.04,122.47,181.44,498.95,Single-ply,SBD,M
Boys,89.81,5,Matt Ligon,Monahans,85.28,183.7,95.25,179.17,458.13,Single-ply,SBD,M
Boys,89.81,6,Jakolbey Acosta,Monahans,84.82,145.15,95.25,158.76,399.16,Single-ply,SBD,M
Boys,89.81,7,Hunter Redman,San Angelo Grape Creek,83.46,127.01,95.25,124.74,347,Single-ply,SBD,M
Boys,89.81,8,Nico Ortiz,Big Lake Reagan County,89.36,129.27,79.38,129.27,337.93,Single-ply,SBD,M
Boys,89.81,DQ,Java Smith,San Angelo Lake View,87.54,210.92,102.06,,,Single-ply,SBD,M
Boys,99.79,1,Alex Perez,San Angelo Grape Creek,98.43,244.94,142.88,215.46,603.28,Single-ply,SBD,M
Boys,99.79,2,Isaiah Marquez #1,Kermit,99.79,226.8,136.08,215.46,578.33,Single-ply,SBD,M
Boys,99.79,3,David Luera,San Angelo Lake View,92.53,181.44,102.06,197.31,480.81,Single-ply,SBD,M
Boys,99.79,4,Josh Caldwell,Monahans,97.52,195.04,92.99,183.7,471.74,Single-ply,SBD,M
Boys,99.79,5,Trace Hariman,Eldorado,93.44,165.56,111.13,174.63,451.32,Single-ply,SBD,M
Boys,99.79,6,Junior Gonzales,Eldorado,91.17,158.76,92.99,197.31,449.06,Single-ply,SBD,M
Boys,99.79,7,Michael Muniz,Iraan,95.25,127.01,65.77,113.4,306.17,Single-ply,SBD,M
Boys,99.79,8,Edgar Carrasco,Kermit,99.34,127.01,70.31,108.86,306.17,Single-ply,SBD,M
Boys,99.79,9,Joshua Modesto,Kermit,95.71,108.86,56.7,129.27,294.84,Single-ply,SBD,M
Boys,99.79,10,Colt Cox,San Angelo Grape Creek,97.98,90.72,68.04,113.4,272.16,Single-ply,SBD,M
Boys,99.79,DQ,Jerry Cuellar,Eldorado,95.71,,,,,Single-ply,SBD,M
Boys,109.77,1,Angel DeLuna,Big Lake Reagan County,108.86,274.42,149.69,233.6,657.71,Single-ply,SBD,M
Boys,109.77,2,Marco Martínez,Kermit,107.95,217.72,117.93,210.92,546.58,Single-ply,SBD,M
Boys,109.77,3,Sam Sentena,San Angelo Lake View,105.69,183.7,113.4,208.65,505.76,Single-ply,SBD,M
Boys,109.77,4,Tristan Ortiz,Big Lake Reagan County,107.5,231.33,95.25,172.37,498.95,Single-ply,SBD,M
Boys,109.77,5,Travis Carter,Iraan,100.7,204.12,83.91,188.24,476.27,Single-ply,SBD,M
Boys,109.77,6,Taelor Pister,McCamey,103.42,167.83,115.67,188.24,471.74,Single-ply,SBD,M
Boys,109.77,7,Luke Arana,McCamey,100.7,172.37,99.79,142.88,415.04,Single-ply,SBD,M
Boys,109.77,8,Damian Guerrero,San Angelo Lake View,100.7,154.22,68.04,163.29,385.55,Single-ply,SBD,M
Boys,109.77,9,Raziel Burrola,Kermit,109.77,136.08,92.99,142.88,371.95,Single-ply,SBD,M
Boys,109.77,10,Ivan Castillo,Iraan,104.33,117.93,77.11,136.08,331.12,Single-ply,SBD,M
Boys,109.77,11,Dylan Mendoza,Ozona,100.7,88.45,56.7,90.72,235.87,Single-ply,SBD,M
Boys,124.74,1,Adrian Hernandez #5,San Angelo Grape Creek,110.22,260.82,142.88,244.94,648.64,Single-ply,SBD,M
Boys,124.74,2,Oscar Gutierrez,Monahans,124.74,272.16,165.56,210.92,648.64,Single-ply,SBD,M
Boys,124.74,3,Ramon Flores,Monahans,112.94,201.85,131.54,215.46,548.85,Single-ply,SBD,M
Boys,124.74,4,Derek Woods,Kermit,118.84,206.38,117.93,190.51,514.83,Single-ply,SBD,M
Boys,124.74,5,Taylor Elkins,Mertzon Irion County,124.65,181.44,124.74,158.76,464.93,Single-ply,SBD,M
Boys,124.74,6,Drew Waters,Miles,122.47,147.42,92.99,151.95,392.36,Single-ply,SBD,M
Boys,124.74+,1,Antonio Perez,San Angelo Grape Creek,125.19,258.55,190.51,217.72,666.78,Single-ply,SBD,M
Boys,124.74+,2,Ernie Veloz,Big Lake Reagan County,144.24,254.01,142.88,226.8,623.69,Single-ply,SBD,M
Boys,124.74+,3,Elijah Davis,San Angelo Lake View,155.58,242.67,131.54,233.6,607.81,Single-ply,SBD,M
Boys,124.74+,4,Malcolm Montez,Monahans,147.87,215.46,142.88,201.85,560.19,Single-ply,SBD,M
Boys,124.74+,5,Chris Samaniego,Monahans,138.35,206.38,124.74,199.58,530.7,Single-ply,SBD,M
Boys,124.74+,6,Zathan McIntosh,Kermit,150.14,206.38,113.4,158.76,478.54,Single-ply,SBD,M
Boys,124.74+,7,Greg DeHoyos,Ozona,133.81,136.08,68.04,113.4,317.51,Single-ply,SBD,M
Boys,,NS,Carlos Martinez,Ozona,,,,,,Single-ply,SBD,M
Boys,,NS,John DeLuna,San Angelo Grape Creek,,,,,,Single-ply,SBD,M
Boys,,NS,Damond Humiston,San Angelo Grape Creek,,,,,,Single-ply,SBD,M
Boys,,NS,Joseph Delgado,Sonora,,,,,,Single-ply,SBD,M
Boys,,NS,Julian Guerra,Sonora,,,,,,Single-ply,SBD,M
Boys,,NS,Angel McKee,McCamey,,,,,,Single-ply,SBD,M
Boys,,NS,Hunter Maynard,McCamey,,,,,,Single-ply,SBD,M
Boys,,NS,Sebi Jimenez,McCamey,,,,,,Single-ply,SBD,M
Boys,,NS,Kuail Kraatz,Miles,,,,,,Single-ply,SBD,M
Boys,,NS,Anthony Jones,Miles,,,,,,Single-ply,SBD,M
Boys,,NS,JD Esquivel,Big Lake Reagan County,,,,,,Single-ply,SBD,M
Boys,,NS,Hegan Leech,Crane,,,,,,Single-ply,SBD,M
Boys,,NS,Raul Rey,Big Lake Reagan County,,,,,,Single-ply,SBD,M
