Division,WeightClassKg,Place,Name,Team,BodyweightKg,Best3SquatKg,Best3BenchKg,Best3DeadliftKg,TotalKg,Equipment,Event,Sex
Boys,51.71,1,Michael Ellis,Nocona,51.71,113.4,65.77,127.01,306.17,Single-ply,SBD,M
Boys,51.71,2,Erik Tapia,Gunter,49.71,83.91,56.7,92.99,233.6,Single-ply,SBD,M
Boys,51.71,3,Lucas Moore,Celina,50.26,63.5,38.56,79.38,181.44,Single-ply,SBD,M
Boys,55.79,1,Cade Dudley,Celina,55.79,115.67,92.99,122.47,331.12,Single-ply,SBD,M
Boys,55.79,2,Conner Jacobs,Whitesboro,55.07,124.74,65.77,127.01,317.51,Single-ply,SBD,M
Boys,59.87,1,Edwin Rodriguez,Pilot Point,56.79,156.49,83.91,174.63,415.04,Single-ply,SBD,M
Boys,59.87,2,Patrick Burleson,Lindsay,56.34,113.4,63.5,77.11,254.01,Single-ply,SBD,M
Boys,67.13,1,Tyler Richards,Nocona,65.23,163.29,86.18,174.63,424.11,Single-ply,SBD,M
Boys,67.13,2,Manuel Labrada,Whitesboro,60.78,151.95,95.25,158.76,405.97,Single-ply,SBD,M
Boys,67.13,3,Isaac Stuart,Celina,65.5,158.76,74.84,156.49,390.09,Single-ply,SBD,M
Boys,67.13,4,Edison Torres,Celina,65.5,145.15,74.84,170.1,390.09,Single-ply,SBD,M
Boys,67.13,5,Army Ellison,Celina,65.86,138.35,92.99,136.08,367.41,Single-ply,SBD,M
Boys,67.13,6,Henry Robinson,Argyle,65.14,136.08,68.04,147.42,351.53,Single-ply,SBD,M
Boys,67.13,DQ,Chance Cruz,Argyle,63.78,179.17,,,,Single-ply,SBD,M
Boys,67.13,DQ,Landon Patterson,Lindsay,63.23,,,,,Single-ply,SBD,M
Boys,74.84,1,Javon Bruce,Pilot Point,74.66,197.31,113.4,204.12,514.83,Single-ply,SBD,M
Boys,74.84,2,Jose Martinez,Celina,73.12,183.7,111.13,197.31,492.15,Single-ply,SBD,M
Boys,74.84,3,Victor Maratinez,Pilot Point,72.67,201.85,111.13,174.63,487.61,Single-ply,SBD,M
Boys,74.84,4,Taylor Jackson #3,Celina,72.03,165.56,97.52,170.1,433.18,Single-ply,SBD,M
Boys,74.84,5,Willy Salsman,Nocona,74.12,154.22,102.06,161.03,417.3,Single-ply,SBD,M
Boys,74.84,6,Mark Castle,Argyle,72.57,142.88,70.31,181.44,394.63,Single-ply,SBD,M
Boys,74.84,DQ,Brock Martin,Argyle,71.94,235.87,131.54,,,Single-ply,SBD,M
Boys,82.1,1,Innis Mendoza,Pilot Point,79.38,215.46,140.61,172.37,528.44,Single-ply,SBD,M
Boys,82.1,2,Drayden Lawson,Pilot Point,80.2,192.78,108.86,226.8,528.44,Single-ply,SBD,M
Boys,82.1,3,John McCoy,Justin Northwest,76.57,185.97,95.25,208.65,489.88,Single-ply,SBD,M
Boys,82.1,4,Issiac Ryan,Nocona,76.11,158.76,81.65,181.44,421.84,Single-ply,SBD,M
Boys,82.1,5,Junior Partney,Nocona,75.84,142.88,90.72,170.1,403.7,Single-ply,SBD,M
Boys,82.1,6,Lane Dophied,Gunter,80.38,142.88,79.38,117.93,340.19,Single-ply,SBD,M
Boys,82.1,DQ,Naton Edwards,Argyle,79.11,188.24,,,,Single-ply,SBD,M
Boys,89.81,1,Graham Lebetter,Whitesboro,88,231.33,142.88,247.21,621.42,Single-ply,SBD,M
Boys,89.81,2,Christian Olowokere,Celina,87.63,185.97,124.74,188.24,498.95,Single-ply,SBD,M
Boys,89.81,3,Alex Reeder,Pilot Point,86.18,145.15,117.93,181.44,444.52,Single-ply,SBD,M
Boys,89.81,DQ,Rainier Corral,Valley View,87.63,,,,,Single-ply,SBD,M
Boys,99.79,1,Erik Gonzalez #2,Valley View,98.16,242.67,142.88,226.8,612.35,Single-ply,SBD,M
Boys,99.79,2,Brandon Fangman,Pilot Point,97.79,176.9,136.08,176.9,489.88,Single-ply,SBD,M
Boys,99.79,3,Carlos Winters,Nocona,97.16,174.63,102.06,176.9,453.59,Single-ply,SBD,M
Boys,99.79,DQ,Austin Criswell,Argyle,96.71,156.49,,,,Single-ply,SBD,M
Boys,109.77,1,Jason Daughtry,Nocona,108.23,222.26,117.93,204.12,544.31,Single-ply,SBD,M
Boys,109.77,2,Casey Pounds,Lindsay,109.77,208.65,136.08,174.63,519.36,Single-ply,SBD,M
Boys,109.77,3,Micheal Reemts,Celina,100.97,215.46,92.99,188.24,496.68,Single-ply,SBD,M
Boys,109.77,4,Ben Beggs,Pilot Point,104.6,156.49,99.79,185.97,442.25,Single-ply,SBD,M
Boys,124.74,1,Esteban Cervantes,Valley View,119.93,272.16,163.29,247.21,682.66,Single-ply,SBD,M
Boys,124.74,2,Deuce Glasker,Nocona,124.28,254.01,158.76,195.04,607.81,Single-ply,SBD,M
Boys,124.74,3,Reagan Spencer,Gunter,119.11,204.12,115.67,170.1,489.88,Single-ply,SBD,M
Boys,124.74,4,Luke Rogers #2,Lindsay,110.31,170.1,83.91,147.42,401.43,Single-ply,SBD,M
Boys,124.74,5,Kristifer Stitzer,Pilot Point,117.57,124.74,99.79,131.54,356.07,Single-ply,SBD,M
Boys,124.74,DQ,Dawson Hacker,Valley View,112.58,172.37,,,,Single-ply,SBD,M
Boys,124.74+,1,Brady York,Nocona,131.9,249.48,149.69,226.8,625.96,Single-ply,SBD,M
Boys,124.74+,2,Bill Overton,Denton Guyer,135.62,265.35,136.08,213.19,614.62,Single-ply,SBD,M
Boys,124.74+,3,Josh Hicks,Argyle,126.46,249.48,133.81,188.24,571.53,Single-ply,SBD,M
Boys,124.74+,4,Isaac Bower,Valley View,126.92,156.49,106.59,158.76,421.84,Single-ply,SBD,M
Boys,124.74+,5,Ethan Moore,Valley View,136.71,142.88,74.84,136.08,353.8,Single-ply,SBD,M
Boys,124.74+,DQ,Addison Crockett,Valley View,126.28,233.6,,,,Single-ply,SBD,M
