Division,WeightClassKg,Place,Name,Team,BodyweightKg,Best3SquatKg,Best3BenchKg,Best3DeadliftKg,TotalKg,Equipment,Event,Sex,BirthDate
Boys,51.71,1,Korey Newkirk,Hardin,45.36,79.38,43.09,104.33,226.8,Single-ply,SBD,M,
Boys,51.71,DQ,Max Jones #4,Saratoga West Hardin,50.8,,,,,Single-ply,SBD,M,
Boys,59.87,1,Hector Valdez,Cleveland Tarkington,59.87,142.88,77.11,142.88,362.87,Single-ply,SBD,M,
Boys,59.87,2,Kaden Vance,Hardin,56.7,111.13,65.77,136.08,312.98,Single-ply,SBD,M,
Boys,59.87,DQ,Collin Newton,Saratoga West Hardin,57.61,,,,,Single-ply,SBD,M,
Boys,59.87,DQ,Brice Blanchard,Saratoga West Hardin,59.87,,,,,Single-ply,SBD,M,
Boys,67.13,1,Austin Winder,Cleveland Tarkington,66.68,161.03,83.91,145.15,390.09,Single-ply,SBD,M,
Boys,67.13,2,Ty Tinkle,Hardin,65.77,129.27,70.31,136.08,335.66,Single-ply,SBD,M,
Boys,67.13,3,Sterling Gallander,Saratoga West Hardin,61.69,74.84,56.7,108.86,240.4,Single-ply,SBD,M,
Boys,67.13,DQ,Austin Collier,Saratoga West Hardin,67.13,,,,,Single-ply,SBD,M,
Boys,67.13,DQ,Kaiden Vasquez,Saratoga West Hardin,67.13,,,,,Single-ply,SBD,M,
Boys,67.13,DQ,Dylan Herrington,Cleveland Tarkington,65.77,,,,,Single-ply,SBD,M,
Boys,67.13,DQ,Aj Valdez #2,Cleveland Tarkington,62.14,,,,,Single-ply,SBD,M,
Boys,74.84,1,Carter Maloch,Hardin,73.94,158.76,102.06,183.7,444.52,Single-ply,SBD,M,
Boys,74.84,2,Bryant Wilkerson,Cleveland Tarkington,73.94,170.1,95.25,151.95,417.3,Single-ply,SBD,M,
Boys,74.84,3,Zach Bullard,Cleveland Tarkington,71.67,158.76,102.06,147.42,408.23,Single-ply,SBD,M,
Boys,74.84,4,Brett Thomas,Cleveland Tarkington,73.94,147.42,90.72,156.49,394.63,Single-ply,SBD,M,
Boys,74.84,5,Bradley Brown,Saratoga West Hardin,74.84,149.69,95.25,142.88,387.82,Single-ply,SBD,M,
Boys,74.84,6,Cj Crump,Hardin,70.31,122.47,68.04,174.63,365.14,Single-ply,SBD,M,
Boys,82.1,1,Ryan Harris,Hardin,77.56,156.49,74.84,158.76,390.09,Single-ply,SBD,M,
Boys,82.1,DQ,Payton Orzednowski,Cleveland Tarkington,79.38,,,,,Single-ply,SBD,M,
Boys,82.1,DQ,Bradley Sanders,Cleveland Tarkington,80.29,,,,,Single-ply,SBD,M,
Boys,82.1,DQ,Josh Buffington,Hardin,79.38,,,,,Single-ply,SBD,M,
Boys,82.1,DQ,Kamden Browning,Saratoga West Hardin,82.1,,,,,Single-ply,SBD,M,
Boys,109.77,1,Jaydon Harris,Cleveland Tarkington,102.06,226.8,133.81,249.48,610.08,Single-ply,SBD,M,
Boys,109.77,2,Adrian Ibarra,Hardin,104.33,129.27,83.91,170.1,383.29,Single-ply,SBD,M,
Boys,109.77,3,Nathan Holst,Hardin,102.06,136.08,88.45,142.88,367.41,Single-ply,SBD,M,
Boys,124.74,1,Gavin Edwards,Cleveland Tarkington,117.03,231.33,170.1,213.19,614.62,Single-ply,SBD,M,
Boys,124.74,2,Shane Holst,Hardin,114.31,233.6,151.95,222.26,607.81,Single-ply,SBD,M,
Boys,139.71,1,Paul Thonsgaard,Hardin,127.91,276.69,185.97,256.28,718.94,Single-ply,SBD,M,
Boys,139.71,2,Austin Couhig,Cleveland Tarkington,131.54,272.16,165.56,233.6,671.32,Single-ply,SBD,M,
Boys,139.71,DQ,John Curtis,Saratoga West Hardin,139.71,,,,,Single-ply,SBD,M,
Boys,139.71+,1,Juan Sanchez #10,Saratoga West Hardin,155.13,210.92,111.13,215.46,537.51,Single-ply,SBD,M,
