Division,WeightClassKg,Place,Name,Team,BodyweightKg,Best3SquatKg,Best3BenchKg,Best3DeadliftKg,TotalKg,Equipment,Event,Sex,BirthDate
Boys,51.71,1,Alejandro Leyva,Kermit,51.57,92.99,58.97,111.13,263.08,Single-ply,SBD,M,
Boys,51.71,2,Caleb Lee,Monahans,48.85,95.25,52.16,102.06,249.48,Single-ply,SBD,M,
Boys,51.71,3,Adrian Valdez,Fort Stockton,48.58,81.65,38.56,102.06,222.26,Single-ply,SBD,M,
Boys,51.71,DQ,Daniel Renteria,Fort Stockton,51.62,,,,,Single-ply,SBD,M,
Boys,55.79,1,Zaniel Florez,Kermit,55.38,170.1,86.18,161.03,417.3,Single-ply,SBD,M,
Boys,55.79,2,Kendrick Porras,Fort Stockton,55.61,136.08,86.18,176.9,399.16,Single-ply,SBD,M,
Boys,55.79,3,Caison Burrus,Fort Stockton,54.93,142.88,56.7,145.15,344.73,Single-ply,SBD,M,
Boys,55.79,4,Edrick Almendariz,Kermit,55.16,117.93,,,117.93,Single-ply,S,M,
Boys,59.87,1,Ethan Gomez,Kermit,58.42,106.59,61.23,111.13,278.96,Single-ply,SBD,M,
Boys,67.13,1,Juan Salgado,Fort Stockton,66.54,192.78,140.61,192.78,526.17,Single-ply,SBD,M,
Boys,67.13,2,Jaylee Ibarra,Fort Stockton,64.68,179.17,102.06,151.95,433.18,Single-ply,SBD,M,
Boys,67.13,3,Bryan Lee Rivera,Fort Stockton,65.09,149.69,92.99,156.49,399.16,Single-ply,SBD,M,
Boys,67.13,4,Matt Rosas,Wink,61.96,147.42,79.38,147.42,374.21,Single-ply,SBD,M,
Boys,67.13,5,Jesus Villegas,Kermit,65.82,138.35,81.65,149.69,369.68,Single-ply,SBD,M,
Boys,67.13,6,Ángel Sánchez #3,Pecos,65.77,124.74,81.65,120.2,326.59,Single-ply,SBD,M,
Boys,67.13,7,Rene Orona,Monahans,66.59,104.33,72.57,136.08,312.98,Single-ply,SBD,M,
Boys,74.84,1,Gabriel Calzada,Fort Stockton,73.26,192.78,124.74,192.78,510.29,Single-ply,SBD,M,
Boys,74.84,2,Ronnie Romero,Fort Stockton,68.72,181.44,111.13,174.63,467.2,Single-ply,SBD,M,
Boys,74.84,3,Jaydrien Ramirez,Fort Stockton,72.3,181.44,111.13,174.63,467.2,Single-ply,SBD,M,
Boys,74.84,4,Bradley Peralta,Kermit,70.31,170.1,106.59,172.37,449.06,Single-ply,SBD,M,
Boys,74.84,5,Joel Garcia,Kermit,73.8,161.03,104.33,156.49,421.84,Single-ply,SBD,M,
Boys,74.84,6,Ryan Munoz,Kermit,71.35,174.63,72.57,165.56,412.77,Single-ply,SBD,M,
Boys,74.84,7,David Madrid,Pecos,73.62,127.01,95.25,165.56,387.82,Single-ply,SBD,M,
Boys,74.84,8,Anthony McDowell,Kermit,69.26,111.13,86.18,138.35,335.66,Single-ply,SBD,M,
Boys,74.84,9,Cole Purcell,Wink,69.08,108.86,68.04,115.67,292.57,Single-ply,SBD,M,
Boys,74.84,10,Christian Maledon,Pecos,70.94,113.4,68.04,111.13,292.57,Single-ply,SBD,M,
Boys,74.84,11,Alex Miranda,Monahans,70.76,102.06,56.7,127.01,285.76,Single-ply,SBD,M,
Boys,82.1,1,Clayton Foster,Fort Stockton,77.11,197.31,124.74,197.31,519.36,Single-ply,SBD,M,
Boys,82.1,2,Michael Ortega,Fort Stockton,78.47,158.76,106.59,161.03,426.38,Single-ply,SBD,M,
Boys,82.1,3,Jovany Hernandez,Fort Stockton,78.11,158.76,90.72,165.56,415.04,Single-ply,SBD,M,
Boys,82.1,4,Jose Hernandez #22,Fort Stockton,78.97,124.74,74.84,142.88,342.46,Single-ply,SBD,M,
Boys,82.1,5,Ryan Villanueva,Pecos,79.42,99.79,74.84,138.35,312.98,Single-ply,SBD,M,
Boys,89.81,1,Angelo Lopez,Kermit,86.77,176.9,124.74,176.9,478.54,Single-ply,SBD,M,
Boys,89.81,2,Jaden Gonzales,Fort Stockton,89.18,197.31,102.06,174.63,474,Single-ply,SBD,M,
Boys,89.81,3,Roy Bislar,Fort Stockton,86.36,174.63,106.59,158.76,439.98,Single-ply,SBD,M,
Boys,89.81,4,Justin Sanchez,Fort Stockton,87.5,136.08,115.67,161.03,412.77,Single-ply,SBD,M,
Boys,89.81,5,Sylis Vidana,Monahans,87.54,156.49,90.72,154.22,401.43,Single-ply,SBD,M,
Boys,89.81,6,Jesse Putnam,Wink,83.91,147.42,83.91,147.42,378.75,Single-ply,SBD,M,
Boys,89.81,7,Joseph Vowles,Monahans,88.95,127.01,72.57,136.08,335.66,Single-ply,SBD,M,
Boys,99.79,1,Mikial Burrola,Kermit,94.8,208.65,138.35,208.65,555.65,Single-ply,SBD,M,
Boys,99.79,2,Mack Payne,Wink,91.53,147.42,97.52,154.22,399.16,Single-ply,SBD,M,
Boys,99.79,3,Lucas Ordonez,Monahans,90.95,149.69,92.99,151.95,394.63,Single-ply,SBD,M,
Boys,99.79,4,Gage Strain,Pecos,95.16,149.69,81.65,154.22,385.55,Single-ply,SBD,M,
Boys,99.79,5,Donnie De La Cruz,Fort Stockton,99.79,219.99,136.08,,356.07,Single-ply,SB,M,
Boys,109.77,1,Cade Bayer,Fort Stockton,106.82,176.9,106.59,161.03,444.52,Single-ply,SBD,M,
Boys,109.77,2,Eliseo Bonilla,Kermit,103.19,156.49,97.52,161.03,415.04,Single-ply,SBD,M,
Boys,109.77,3,Drew Coker,Monahans,101.56,165.56,81.65,161.03,408.23,Single-ply,SBD,M,
Boys,109.77,DQ,Jonathan Salinas,Fort Stockton,105.6,,,,,Single-ply,SBD,M,
Boys,124.74,1,Darius Pando,Kermit,121.79,249.48,147.42,233.6,630.49,Single-ply,SBD,M,
Boys,124.74,2,Memphis Alvarado,Fort Stockton,118.07,192.78,142.88,188.24,523.9,Single-ply,SBD,M,
Boys,124.74,3,Andrew Gonzales,Fort Stockton,118.16,158.76,97.52,156.49,412.77,Single-ply,SBD,M,
Boys,124.74,4,Moises Rodriguez,Monahans,111.54,140.61,83.91,163.29,387.82,Single-ply,SBD,M,
Boys,124.74,5,Jose Ramirez #15,Fort Stockton,111.18,145.15,88.45,131.54,365.14,Single-ply,SBD,M,
Boys,124.74+,1,Albert Aguilar,Pecos,154.22,276.69,190.51,210.92,678.12,Single-ply,SBD,M,
Boys,124.74+,2,Jalen Ramirez,Wink,145.65,170.1,90.72,170.1,430.91,Single-ply,SBD,M,
Boys,124.74+,3,Jerry Perez,Kermit,149.69,156.49,90.72,174.63,421.84,Single-ply,SBD,M,
Boys,124.74+,4,Jt Gomez,Fort Stockton,144.38,244.94,136.08,,381.02,Single-ply,SB,M,
